{
    "buttons": [
        "bold",
        "italic"
    ],
    "allowedTags": [
        "div",
        "p",
        "i",
        "h1",
        "h2",
        "h3",
        "h4",
        "h5",
        "pre",
        "strong",
        "span"
    ],
    "toolbarFixed": true,
    "removeEmpty": [
        "strong",
        "em",
        "p"
    ],
    "imagePosition": true,
    "plugins": [
        "imagePosition"
    ]
}